…
``` r
#import
hi_res <- read_excel(path = "1-s2.0-S0016703722001454-mmc1.xlsx",sheet =1 )
```

    ## New names:
    ## • `` -> `...17`

``` r
#take a look
hi_res
```

    ## # A tibble: 2,978 × 18
    ##    `DFT (mm)` `Year (CE)` `Organic matter (r…` `\u03b413C (\u…` `\u03b418O (\u…`
    ##         <dbl>       <dbl>                <dbl>            <dbl>            <dbl>
    ##  1       18.8       1760.                122.             -5.47            -2.79
    ##  2       18.8       1760.                116.             -5.49            -2.80
    ##  3       18.8       1760.                116.             -5.51            -2.81
    ##  4       18.8       1760.                116              -5.53            -2.82
    ##  5       18.8       1760.                116              -5.55            -2.83
    ##  6       18.8       1760.                115.             -5.57            -2.84
    ##  7       18.8       1760.                114.             -5.59            -2.85
    ##  8       18.8       1760.                110.             -5.61            -2.86
    ##  9       18.8       1760.                103.             -5.63            -2.87
    ## 10       18.8       1760.                 91.5            -5.65            -2.88
    ## # … with 2,968 more rows, and 13 more variables: `Mg (ppm)` <dbl>,
    ## #   `P (ppm)` <dbl>, `Sr (ppm)` <dbl>, `Ba (ppm)` <dbl>, `U (ppm)` <dbl>,
    ## #   `Al (ppm)` <dbl>, `Zn (ppm)` <dbl>, `Cu (ppm)` <dbl>, `Pb (ppm)` <dbl>,
    ## #   `S (relative greyscale concentration)` <dbl>,
    ## #   `Br (ppm) smoothed using 13 point Savitsky Golay filter` <dbl>,
    ## #   ...17 <lgl>,
    ## #   `*NOTE: This data is for the high resolution PCA. Data has been interpolated to the LA-ICP-MS data (0.0063mm resolution). The maximum and minimum DFT values for data utilised in the PCA are constrained by the maximum and minimum DFT values of the stable isotope data (0.05 - 18.85 mm DFT)*` <lgl>
…
``` r
#drop columns not used in rolling average plot, and lengthen data
#this could also be done with a loop i.e., 
hi_res_long <-  hi_res %>% select(!c("Al (ppm)", "Pb (ppm)", "Cu (ppm)","Zn (ppm)"))%>%
  pivot_longer(!c("DFT (mm)","Year (CE)"),names_to = "Type",values_to = "Observation") %>% group_by(Type)

#take a look
hi_res_long
```

    ## # A tibble: 29,780 × 4
    ## # Groups:   Type [10]
    ##    `DFT (mm)` `Year (CE)` Type     Observation
    ##         <dbl>       <dbl> <chr>          <dbl>
    ##  1       18.8       1760. OM (rgc)    122.    
    ##  2       18.8       1760. d13C         -5.47  
    ##  3       18.8       1760. d18O         -2.79  
    ##  4       18.8       1760. Mg (ppm)   2507.    
    ##  5       18.8       1760. P (ppm)       3.05  
    ##  6       18.8       1760. Sr (ppm)    362.    
    ##  7       18.8       1760. Ba (ppm)     16.5   
    ##  8       18.8       1760. U (ppm)       0.0810
    ##  9       18.8       1760. S (rgc)     186.    
    ## 10       18.8       1760. Br (ppm)     17.7   
    ## # … with 29,770 more rows
…
