…
    ## [1] "numeric"

``` r
#Basic QC
unique(is.na(dat)) #check each column for missing values
```

    ##        age depth  d13C  d18O
    ## [1,] FALSE FALSE FALSE FALSE

``` r
print(dat) #print a preview of the tbl (behaves differently from print for dataframes)
```

    ## # A tibble: 617 × 4
    ##      age depth   d13C   d18O
    ##    <dbl> <dbl>  <dbl>  <dbl>
    ##  1  11.7  1.21 -10.6   -9.66
    ##  2  11.7  1.26 -10.4  -10.4 
    ##  3  11.7  1.30  -9.65  -9.90
    ##  4  11.7  1.35  -9.99 -10.6 
    ##  5  11.8  1.45 -10.2  -10.1 
    ##  6  11.8  1.49 -10.6  -10.0 
    ##  7  11.8  1.54 -10.5   -9.51
    ##  8  11.9  1.59 -10.8  -10.3 
    ##  9  11.9  1.64  -9.91  -9.57
    ## 10  11.9  1.68 -10.1  -10.1 
    ## # … with 607 more rows
…
``` r
#Note i'm splitting this command onto multiple lines to improve readability, in R you can just split up 
#comma separated inputs (i.e., function(,,,,)) in this way.
dat_long <- pivot_longer(data=dat, 
                         cols=c( "d13C" , "d18O" ),
                         names_to = "isotope",
                         values_to = "signature"
                         ) 
#tell R that itnervals and isotopes should be treated separately
dat_long<-dat_long%>%group_by(interval, isotope)#note the new operater '%>%' which is equivalent to a pipe, 
#by passing the tbl to the standard input of the 'group_by' function
dat_long#take a look
```

    ## # A tibble: 1,234 × 5
    ## # Groups:   interval, isotope [14]
    ##      age depth interval                        isotope signature
    ##    <dbl> <dbl> <fct>                           <chr>       <dbl>
    ##  1  11.7  1.21 "Younger Dryas\n(11.6-12.7 ka)" d13C       -10.6 
    ##  2  11.7  1.21 "Younger Dryas\n(11.6-12.7 ka)" d18O        -9.66
    ##  3  11.7  1.26 "Younger Dryas\n(11.6-12.7 ka)" d13C       -10.4 
    ##  4  11.7  1.26 "Younger Dryas\n(11.6-12.7 ka)" d18O       -10.4 
    ##  5  11.7  1.30 "Younger Dryas\n(11.6-12.7 ka)" d13C        -9.65
    ##  6  11.7  1.30 "Younger Dryas\n(11.6-12.7 ka)" d18O        -9.90
    ##  7  11.7  1.35 "Younger Dryas\n(11.6-12.7 ka)" d13C        -9.99
    ##  8  11.7  1.35 "Younger Dryas\n(11.6-12.7 ka)" d18O       -10.6 
    ##  9  11.8  1.45 "Younger Dryas\n(11.6-12.7 ka)" d13C       -10.2 
    ## 10  11.8  1.45 "Younger Dryas\n(11.6-12.7 ka)" d18O       -10.1 
    ## # … with 1,224 more rows
…
    ##  [1]  1  2  3  4  5  6  7  8  9 10 11 12 13 14 15 16 17 18 19 20 21 22 23 24 25
    ## [26] 26 27 28 29 30 31 32 33 34 35 36 37 38 39 40 41

``` r
#brackets "[i,j]" treat the data frame like a matrix, if you leave one blank it takes everything.
#using the which command inside the brackets will give a set of indexes to the [] and return rows or columns for just those indexes (i.e. a subset)

#so lets keep all columns and only the rows for a test interval, say the first, using the name
dat[which(dat$interval=="Younger Dryas\n(11.6-12.7 ka)"),]
```

    ## # A tibble: 41 × 12
    ##      age depth   d13C   d18O interval      ky_t0 fitted_d18O notrend_d18O z_d18O
    ##    <dbl> <dbl>  <dbl>  <dbl> <fct>         <dbl>       <dbl>        <dbl>  <dbl>
    ##  1  11.7  1.21 -10.6   -9.66 "Younger Dry… -7.76       -9.72       0.0604  0.103
    ##  2  11.7  1.26 -10.4  -10.4  "Younger Dry… -7.74       -9.72      -0.710  -1.21 
    ##  3  11.7  1.30  -9.65  -9.90 "Younger Dry… -7.71       -9.72      -0.180  -0.306
    ##  4  11.7  1.35  -9.99 -10.6  "Younger Dry… -7.69       -9.72      -0.860  -1.46 
    ##  5  11.8  1.45 -10.2  -10.1  "Younger Dry… -7.63       -9.72      -0.381  -0.648
    ##  6  11.8  1.49 -10.6  -10.0  "Younger Dry… -7.61       -9.72      -0.281  -0.479
    ##  7  11.8  1.54 -10.5   -9.51 "Younger Dry… -7.58       -9.72       0.219   0.372
    ##  8  11.9  1.59 -10.8  -10.3  "Younger Dry… -7.56       -9.72      -0.582  -0.990
    ##  9  11.9  1.64  -9.91  -9.57 "Younger Dry… -7.53       -9.73       0.158   0.269
    ## 10  11.9  1.68 -10.1  -10.1  "Younger Dry… -7.51       -9.73      -0.333  -0.567
    ## # … with 31 more rows, and 3 more variables: fitted_d13C <dbl>,
    ## #   notrend_d13C <dbl>, z_d13C <dbl>
…
